…
## Data-prep

``` r
fco2_recipe <- recipe(FCO2 ~ ., data = fco2_train %>% 
                        select(-c(data.x,data.y,ID,ano,mes,x,y,latitude,longitude,dist,mês,dia,ano_mes))
) %>%  
  step_normalize(all_numeric_predictors())  %>% 
  step_novel(all_nominal_predictors()) %>% 
  step_zv(all_predictors()) %>%
  #step_naomit(c(Ts, Us)) %>% 
  #step_poly(c(Ts, Us), degree = 3)  %>%  
  step_dummy(all_nominal_predictors())
bake(prep(fco2_recipe), new_data = NULL)
#> # A tibble: 6,103 x 29
#>         Ts      Us     MO  Macro    VTP     ARG     Tmed   Tmax   Tmin   Umed
#>      <dbl>   <dbl>  <dbl>  <dbl>  <dbl>   <dbl>    <dbl>  <dbl>  <dbl>  <dbl>
#>  1  0.862  -0.136   0.381 -0.765  0.318  0.208  NA       NA     NA     NA    
#>  2 -3.40    0.973  -1.61   0.223  0.393  0.0696 -0.141   -0.250 -0.164 -1.39 
#>  3 -0.0175 -0.0969 -0.712 -0.735 -1.57  -1.06   -0.00393  0.430 -0.433 -1.04 
#>  4 -0.846   0.675   0.877  1.43   1.01   1.75   -1.85    -2.03  -1.35  -0.388
#>  5  0.914  -0.200   0.778 NA     NA     NA       1.02     0.578  1.05   0.322
#>  6  0.880  -0.958   0.579 -0.755  0.383 -0.119  NA       NA     NA     NA    
#>  7 -0.190   0.0420 -0.712 -0.735 -1.57  -1.32   -0.825   -0.738 -0.411  1.39 
#>  8 -1.38   -0.177  -1.51   1.59   0.918 NA      -0.734   -0.589 -1.11  -0.316
#>  9 -3.23    0.905  -1.51   0.899  0.780 NA      -0.141   -0.250 -0.164 -1.39 
#> 10 -0.604   0.450   1.57   1.02   0.749  1.21   -0.118    0.366 -0.456 -0.275
#> # ... with 6,093 more rows, and 19 more variables: Umax <dbl>, Umin <dbl>,
#> #   PkPa <dbl>, Rad <dbl>, Eto <dbl>, Velmax <dbl>, Velmin <dbl>,
#> #   Dir_vel <dbl>, chuva <dbl>, inso <dbl>, XCO2 <dbl>, SIF <dbl>, FCO2 <dbl>,
#> #   cultura_eucalipto <dbl>, cultura_mata.ciliar <dbl>, cultura_pasto <dbl>,
#> #   cultura_pinus <dbl>, cultura_silvipastoril <dbl>, cultura_new <dbl>
#> # i Use `print(n = ...)` to see more rows, and `colnames()` to see all variable names
```
…
## Data prep

``` r
fco2_rf_recipe <- recipe(FCO2 ~ ., data = fco2_train) %>% 
  step_string2factor(all_nominal(), skip = TRUE) %>% 
  step_normalize(all_numeric_predictors())  %>% 
  step_novel(all_nominal_predictors()) %>% 
  # step_zv(all_predictors()) %>%
  # step_naomit(all_predictors()) #%>% 
  #step_poly(c(Ts, Us), degree = 3)  %>%  
  step_dummy(all_nominal_predictors())
bake(prep(fco2_rf_recipe), new_data = NULL)
#> # A tibble: 5,459 x 26
#>         Ts   XCO2    SIF     Us     MO    Tmed    Tmax   Tmin   Umed   Umax
#>      <dbl>  <dbl>  <dbl>  <dbl>  <dbl>   <dbl>   <dbl>  <dbl>  <dbl>  <dbl>
#>  1 -3.08    0.105  0.116  0.859 -1.33  -0.282  -0.103  -0.501 -1.09  -1.23 
#>  2  0.723  -0.754  1.22  -1.11   0.200  1.51    1.29    1.24  -1.06  -1.19 
#>  3  0.182   0.105  0.116 -0.992  0.583 -0.0327  0.0447 -0.122 -0.259  0.277
#>  4  0.892  -0.754  1.22  -1.11   0.200  1.35    1.50    1.12  -0.164 -0.404
#>  5  0.0127  0.299 -0.922 -1.24   1.35  -0.0327  0.0447 -0.122 -0.259  0.277
#>  6  0.503  -1.09   1.36  -0.705  0.296  1.08    1.04    1.04   0.307  0.639
#>  7  1.03   -1.10  -0.345  1.59   0.200  1.23    1.02    1.26   0.956  1.03 
#>  8  0.588   0.550 -0.431 -1.77  -0.854  1.05    1.23    0.946  0.307  0.466
#>  9 -1.39   -0.843  0.485  1.47  -1.05   0.397   0.235   0.635  0.338 -0.462
#> 10  0.622   0.407  0.651 -1.76   0.583  1.01    1.08    0.568 -1.00   1.03 
#> # ... with 5,449 more rows, and 16 more variables: Umin <dbl>, PkPa <dbl>,
#> #   Rad <dbl>, Eto <dbl>, Velmax <dbl>, Velmin <dbl>, Dir_vel <dbl>,
#> #   chuva <dbl>, inso <dbl>, FCO2 <dbl>, cultura_eucalipto <dbl>,
#> #   cultura_mata.ciliar <dbl>, cultura_pasto <dbl>, cultura_pinus <dbl>,
#> #   cultura_silvipastoril <dbl>, cultura_new <dbl>
#> # i Use `print(n = ...)` to see more rows, and `colnames()` to see all variable names
…
# Boosting gradient tree (xgb)

## Data prep

``` r
fco2_xgb_recipe <- recipe(FCO2 ~ ., data = fco2_train) %>% 
  step_string2factor(all_nominal(), skip = TRUE) %>% 
  step_normalize(all_numeric_predictors())  %>% 
  step_novel(all_nominal_predictors()) %>% 
  # step_zv(all_predictors()) %>%
  # step_naomit(all_predictors()) #%>% 
  #step_poly(c(Ts, Us), degree = 3)  %>%  
  step_dummy(all_nominal_predictors())
bake(prep(fco2_xgb_recipe), new_data = NULL)
#> # A tibble: 5,459 x 26
#>         Ts   XCO2    SIF     Us     MO    Tmed    Tmax   Tmin   Umed   Umax
#>      <dbl>  <dbl>  <dbl>  <dbl>  <dbl>   <dbl>   <dbl>  <dbl>  <dbl>  <dbl>
#>  1 -3.08    0.105  0.116  0.859 -1.33  -0.282  -0.103  -0.501 -1.09  -1.23 
#>  2  0.723  -0.754  1.22  -1.11   0.200  1.51    1.29    1.24  -1.06  -1.19 
#>  3  0.182   0.105  0.116 -0.992  0.583 -0.0327  0.0447 -0.122 -0.259  0.277
#>  4  0.892  -0.754  1.22  -1.11   0.200  1.35    1.50    1.12  -0.164 -0.404
#>  5  0.0127  0.299 -0.922 -1.24   1.35  -0.0327  0.0447 -0.122 -0.259  0.277
#>  6  0.503  -1.09   1.36  -0.705  0.296  1.08    1.04    1.04   0.307  0.639
#>  7  1.03   -1.10  -0.345  1.59   0.200  1.23    1.02    1.26   0.956  1.03 
#>  8  0.588   0.550 -0.431 -1.77  -0.854  1.05    1.23    0.946  0.307  0.466
#>  9 -1.39   -0.843  0.485  1.47  -1.05   0.397   0.235   0.635  0.338 -0.462
#> 10  0.622   0.407  0.651 -1.76   0.583  1.01    1.08    0.568 -1.00   1.03 
#> # ... with 5,449 more rows, and 16 more variables: Umin <dbl>, PkPa <dbl>,
#> #   Rad <dbl>, Eto <dbl>, Velmax <dbl>, Velmin <dbl>, Dir_vel <dbl>,
#> #   chuva <dbl>, inso <dbl>, FCO2 <dbl>, cultura_eucalipto <dbl>,
#> #   cultura_mata.ciliar <dbl>, cultura_pasto <dbl>, cultura_pinus <dbl>,
#> #   cultura_silvipastoril <dbl>, cultura_new <dbl>
#> # i Use `print(n = ...)` to see more rows, and `colnames()` to see all variable names
…
